Violencia contra la mujer dentro del ámbito familiar
…
Column

Head dataframe

# A tibble: 40 x 14
   CASEID       D104  D108  D111  V012 V024   V025  V131  V149  V136  V190 V155 
   <chr>       <dbl> <dbl> <dbl> <dbl> <chr> <dbl> <dbl> <dbl> <dbl> <dbl> <fct>
 1 000102201 ~     0     0     0    22 AMAZ~     1    10     5     3     5 leer~
 2 000105201 ~     0     0     0    44 AMAZ~     1    10     5     5     4 leer~
 3 000105301 ~     1     0     0    34 AMAZ~     1    10     3     4     3 leer~
 4 000108301 ~     0     0     0    38 AMAZ~     1    10     5     5     3 leer~
 5 000108501 ~     1     0     1    33 AMAZ~     1    10     5     5     5 leer~
 6 000110301 ~     0     0     0    26 AMAZ~     1    10     5     3     2 leer~
 7 000110701 ~     0     0     0    35 AMAZ~     1    10     5     4     5 leer~
 8 000301201 ~     0     0     0    31 AMAZ~     1    10     5     4     3 leer~
 9 000302201 ~     0     0     0    27 AMAZ~     1    10     4     6     2 leer~
10 000306001 ~     0     0     0    24 AMAZ~     1    10     5     4     5 leer~
# i 30 more rows
# i 2 more variables: S119 <dbl>, lengua <fct>
…
